Look up information
…
To search for a specific available Living Atlas:

search_all(atlases, "Spain")

## # A tibble: 1 × 4
##   region institution acronym url                
##   <chr>  <chr>       <chr>   <chr>              
## 1 Spain  GBIF Spain  GBIF.es https://www.gbif.es

To show all fields:

show_all(fields)

## # A tibble: 646 × 3
##    id                  description               type  
##    <chr>               <chr>                     <chr> 
##  1 _nest_parent_       <NA>                      fields
##  2 _nest_path_         <NA>                      fields
##  3 _root_              <NA>                      fields
##  4 abcdTypeStatus      <NA>                      fields
##  5 acceptedNameUsage   Accepted name             fields
##  6 acceptedNameUsageID Accepted name             fields
##  7 accessRights        Access rights             fields
##  8 annotationsDoi      <NA>                      fields
##  9 annotationsUid      Referenced by publication fields
## 10 assertionUserId     Assertions by user        fields
## # ℹ 636 more rows
…
